{
	"IcoMoonType": "selection",
	"icons": [
		{
			"icon": {
				"paths": [
					"M192 128l640 384-640 384z"
				],
				"tags": [
					"play",
					"media control",
					"audio"
				],
				"grid": 16,
				"matchesSearch": false
			},
			"properties": {
				"id": 266,
				"order": 1,
				"prevSize": 32,
				"code": 58880,
				"name": "play",
				"ligatures": ""
			},
			"setIdx": 1,
			"iconIdx": 266
		},
		{
			"icon": {
				"paths": [
					"M576 160v320l320-320v704l-320-320v320l-352-352z"
				],
				"tags": [
					"backward",
					"media control",
					"audio"
				],
				"grid": 16,
				"matchesSearch": false
			},
			"properties": {
				"id": 269,
				"order": 2,
				"prevSize": 32,
				"code": 58882,
				"name": "backward",
				"ligatures": ""
			},
			"setIdx": 1,
			"iconIdx": 269
		},
		{
			"icon": {
				"paths": [
					"M512 864v-320l-320 320v-704l320 320v-320l352 352z"
				],
				"tags": [
					"forward",
					"media control",
					"audio"
				],
				"grid": 16,
				"matchesSearch": false
			},
			"properties": {
				"id": 270,
				"order": 3,
				"prevSize": 32,
				"code": 58883,
				"name": "forward",
				"ligatures": ""
			},
			"setIdx": 1,
			"iconIdx": 270
		},
		{
			"icon": {
				"paths": [
					"M340 548.571q0 7.429-5.714 13.143l-266.286 266.286q-5.714 5.714-13.143 5.714t-13.143-5.714l-28.571-28.571q-5.714-5.714-5.714-13.143t5.714-13.143l224.571-224.571-224.571-224.571q-5.714-5.714-5.714-13.143t5.714-13.143l28.571-28.571q5.714-5.714 13.143-5.714t13.143 5.714l266.286 266.286q5.714 5.714 5.714 13.143zM559.429 548.571q0 7.429-5.714 13.143l-266.286 266.286q-5.714 5.714-13.143 5.714t-13.143-5.714l-28.571-28.571q-5.714-5.714-5.714-13.143t5.714-13.143l224.571-224.571-224.571-224.571q-5.714-5.714-5.714-13.143t5.714-13.143l28.571-28.571q5.714-5.714 13.143-5.714t13.143 5.714l266.286 266.286q5.714 5.714 5.714 13.143z"
				],
				"width": 585,
				"tags": [
					"angle-double-right"
				],
				"defaultCode": 61697,
				"grid": 14,
				"matchesSearch": false
			},
			"properties": {
				"id": 229,
				"order": 4,
				"prevSize": 28,
				"code": 58881,
				"name": "angle-double-right",
				"ligatures": ""
			},
			"setIdx": 0,
			"iconIdx": 229
		},
		{
			"icon": {
				"paths": [
					"M437.006 818.162c0 75.068-46.39 134.392-177.758 139.176-76.984-43.786-141.49-106.952-186.908-182.866 23.69-58.496 97.692-103.046 182.316-102.114 24.022 0.252 46.41 4.114 66.744 10.7 55.908 38.866 101 63.152 112.324 107.448 2.114 8.964 3.282 18.206 3.282 27.656zM512 0c-147.94 0-281.196 62.77-374.666 163.098 36.934-20.452 80.538-32.638 126.902-32.638 67.068 0 256.438 0 256.438 0l-57.304 60.14h-67.31c47.496 27.212 72.752 83.248 72.752 145.012 0 56.692-31.416 102.38-75.78 137.058-43.28 33.802-51.492 47.966-51.492 76.734 0 24.542 51.722 61.098 75.5 78.936 82.818 62.112 99.578 101.184 99.578 178.87 0 78.726-68.936 157.104-185.866 183.742 56.348 21.338 117.426 33.048 181.248 33.048 282.77 0 512-229.23 512-512s-229.23-512-512-512zM768 384v128h-64v-128h-128v-64h128v-128h64v128h128v64h-128zM365.768 339.472c11.922 90.776-27.846 149.19-96.934 147.134-69.126-2.082-134.806-65.492-146.74-156.242-11.928-90.788 34.418-160.254 103.53-158.196 69.090 2.074 128.22 76.542 140.144 167.304zM220.886 642.068c-74.68 0-138.128 25.768-182.842 63.864-24.502-59.82-38.044-125.29-38.044-193.932 0-56.766 9.256-111.368 26.312-162.396 7.374 99.442 77.352 176.192 192.97 176.192 8.514 0 16.764-0.442 24.874-1.022-7.95 15.23-13.622 32.19-13.622 49.982 0 29.97 16.488 47.070 36.868 66.894-15.402 0-30.27 0.418-46.516 0.418z"
				],
				"tags": [
					"google plus",
					"social"
				],
				"grid": 16,
				"matchesSearch": false
			},
			"properties": {
				"id": 359,
				"order": 5,
				"prevSize": 32,
				"code": 58884,
				"name": "googleplus",
				"ligatures": ""
			},
			"setIdx": 1,
			"iconIdx": 359
		},
		{
			"icon": {
				"paths": [
					"M512 0c282.77 0 512 229.23 512 512 0 261.094-195.438 476.53-448 508.026v-380.026h176l16-128h-192v-64c0-35.346 28.654-64 64-64h128v-128h-128c-106.040 0-192 85.96-192 192v64h-96v128h96v253 114.87 12.156c-252.562-31.496-448-246.932-448-508.026 0-282.77 229.23-512 512-512z"
				],
				"tags": [
					"facebook",
					"social"
				],
				"grid": 16,
				"matchesSearch": false
			},
			"properties": {
				"id": 363,
				"order": 6,
				"prevSize": 32,
				"code": 58885,
				"name": "facebook",
				"ligatures": ""
			},
			"setIdx": 1,
			"iconIdx": 363
		},
		{
			"icon": {
				"paths": [
					"M512 0c-282.77 0-512 229.23-512 512s229.23 512 512 512 512-229.23 512-512-229.23-512-512-512zM806.242 361.088c0.292 6.508 0.442 13.056 0.442 19.638 0 200.622-152.708 431.964-431.958 431.964-85.736 0-165.536-25.136-232.726-68.214 11.876 1.408 23.962 2.126 36.216 2.126 71.13 0 136.59-24.276 188.55-64.994-66.434-1.22-122.5-45.122-141.824-105.432 9.274 1.768 18.784 2.722 28.566 2.722 13.846 0 27.258-1.856 39.998-5.324-69.452-13.952-121.786-75.312-121.786-148.868 0-0.64 0-1.278 0.016-1.91 20.47 11.37 43.878 18.2 68.764 18.988-40.74-27.222-67.54-73.692-67.54-126.368 0-27.822 7.488-53.904 20.556-76.324 74.878 91.854 186.748 152.292 312.924 158.628-2.588-11.118-3.93-22.702-3.93-34.604 0-83.84 67.98-151.812 151.818-151.812 43.666 0 83.124 18.436 110.818 47.94 34.58-6.808 67.074-19.442 96.412-36.84-11.336 35.454-35.41 65.206-66.752 83.994 30.71-3.668 59.968-11.832 87.194-23.904-20.35 30.448-46.090 57.186-75.758 78.594z"
				],
				"tags": [
					"twitter",
					"social"
				],
				"grid": 16,
				"matchesSearch": false
			},
			"properties": {
				"id": 367,
				"order": 7,
				"prevSize": 32,
				"code": 58886,
				"name": "twitter",
				"ligatures": ""
			},
			"setIdx": 1,
			"iconIdx": 367
		},
		{
			"icon": {
				"paths": [
					"M512 0c-282.77 0-512 229.23-512 512s229.23 512 512 512 512-229.23 512-512-229.23-512-512-512zM320 768c-35.346 0-64-28.654-64-64s28.654-64 64-64 64 28.654 64 64-28.654 64-64 64zM496 768c0-132.336-107.664-240-240-240v-96c185.272 0 336 150.728 336 336h-96zM688 768c0-115.39-44.936-223.876-126.53-305.47-81.594-81.594-190.078-126.53-305.47-126.53v-96c141.034 0 273.626 54.922 373.354 154.648 99.724 99.726 154.646 232.318 154.646 373.352h-96z"
				],
				"tags": [
					"feed",
					"rss",
					"social"
				],
				"grid": 16,
				"matchesSearch": false
			},
			"properties": {
				"id": 370,
				"order": 8,
				"prevSize": 32,
				"code": 58887,
				"name": "feed",
				"ligatures": ""
			},
			"setIdx": 1,
			"iconIdx": 370
		},
		{
			"icon": {
				"paths": [
					"M804.571 565.143v148q0 68-48.286 116.286t-116.286 48.286h-475.429q-68 0-116.286-48.286t-48.286-116.286v-475.429q0-68 48.286-116.286t116.286-48.286h145.714q7.429 0 12.857 5.429t5.429 12.857q0 15.429-14.857 18.286-44 14.857-76 34.286-5.714 2.286-9.143 2.286h-64q-37.714 0-64.571 26.857t-26.857 64.571v475.429q0 37.714 26.857 64.571t64.571 26.857h475.429q37.714 0 64.571-26.857t26.857-64.571v-122.286q0-10.857 10.286-16.571 16-7.429 30.857-21.143 9.143-9.143 20-4.571 12 5.143 12 16.571zM940 281.714l-219.429 219.429q-10.286 10.857-25.714 10.857-6.857 0-14.286-2.857-22.286-9.714-22.286-33.714v-109.714h-91.429q-184.571 0-250.286 74.857-68 78.286-42.286 270.286 1.714 13.143-11.429 19.429-4.571 1.143-6.857 1.143-9.143 0-14.857-7.429-5.714-8-12-17.714t-22.571-39.143-28.286-56.857-22-65.143-10-69.714q0-28 2-52t8-51.429 16-50.286 26.857-46.571 39.143-42.286 54-35.143 71.143-27.714 91.143-17.429 112.286-6.286h91.429v-109.714q0-24 22.286-33.714 7.429-2.857 14.286-2.857 14.857 0 25.714 10.857l219.429 219.429q10.857 10.857 10.857 25.714t-10.857 25.714z"
				],
				"width": 951,
				"tags": [
					"share-square-o"
				],
				"defaultCode": 61509,
				"grid": 14,
				"matchesSearch": false
			},
			"properties": {
				"id": 65,
				"order": 9,
				"prevSize": 28,
				"code": 61509,
				"name": "share-square-o",
				"ligatures": ""
			},
			"setIdx": 0,
			"iconIdx": 65
		},
		{
			"icon": {
				"paths": [
					"M832 320v-160c0-17.6-14.4-32-32-32h-224v-64c0-35.2-28.8-64-64-64h-128c-35.204 0-64 28.8-64 64v64h-224c-17.602 0-32 14.4-32 32v640c0 17.6 14.398 32 32 32h288v192h448l192-192v-512h-192zM384 64.114c0.034-0.038 0.072-0.078 0.114-0.114h127.768c0.042 0.036 0.082 0.076 0.118 0.114l0 63.886h-128v-63.886zM192 256v-64h512v64h-512zM832 933.49v-101.49h101.49l-101.49 101.49zM960 768h-192v192h-320v-576h512v384z"
				],
				"tags": [
					"paste",
					"clipboard"
				],
				"grid": 16,
				"matchesSearch": true
			},
			"properties": {
				"id": 43,
				"order": 10,
				"prevSize": 32,
				"code": 58888,
				"name": "paste",
				"ligatures": ""
			},
			"setIdx": 1,
			"iconIdx": 43
		}
	],
	"height": 1024,
	"metadata": {
		"name": "icomoon"
	},
	"preferences": {
		"fontPref": {
			"prefix": "icon-",
			"metadata": {
				"fontFamily": "icomoon",
				"majorVersion": 1,
				"minorVersion": 0
			},
			"showGlyphs": true,
			"metrics": {
				"emSize": 512,
				"baseline": 6.25,
				"whitespace": 50
			},
			"resetPoint": 58880,
			"showQuickUse": true,
			"quickUsageToken": false,
			"showMetrics": true,
			"showMetadata": false
		},
		"imagePref": {
			"color": 0,
			"height": 32,
			"columns": 16,
			"margin": 16,
			"png": false,
			"sprites": true
		},
		"historySize": 100,
		"showCodes": true,
		"gridSize": 16,
		"showLiga": false,
		"showGrid": true,
		"showGlyphs": true,
		"showQuickUse": true
	}
}